{
  "name": "torznab",
  "url" : "https://gitlab.com/haath/torznab-haxe",
  "license": "MIT",
  "tags": [ "torznab", "torrent", "http", "api", "newznab", "jackett" ],
  "description": "Client implementation of the torznab API.",
  "version": "0.0.0",
  "classPath": "src",
  "releasenote": "Update to Haxe 4.3.",
  "contributors": [ "Haath" ],
  "dependencies": {
    "tink_core": "2.1.1",
    "HtmlParser": "3.3.2"
  }
}
